…
## [1] TRUE

Seems to be ok.

page <- read_html(link)

times <- page %>% 
  html_node(".dynPageTable") %>%
  html_table() %>% 
  set_names(c("day", "month", "year", "sunrise", "sunset",
              "moonrise", "moonset")) %>% 
  as_tibble()
times

## # A tibble: 365 x 7
##      day month   year sunrise sunset moonrise moonset
##    <dbl> <chr>  <int> <chr>   <chr>  <chr>    <chr>  
##  1  1.00 Jänner  2018 07:44   16:19  16:01    06:37  
##  2  2.00 Jänner  2018 07:44   16:20  17:06    07:43  
##  3  3.00 Jänner  2018 07:44   16:21  18:18    08:39  
##  4  4.00 Jänner  2018 07:44   16:22  19:33    09:27  
##  5  5.00 Jänner  2018 07:44   16:23  20:48    10:05  
##  6  6.00 Jänner  2018 07:44   16:25  22:00    10:38  
##  7  7.00 Jänner  2018 07:44   16:26  23:10    11:08  
##  8  8.00 Jänner  2018 07:43   16:27  ----     11:35  
##  9  9.00 Jänner  2018 07:43   16:28  00:16    12:00  
## 10 10.0  Jänner  2018 07:43   16:29  01:21    12:26  
## # ... with 355 more rows
…
## Information from URL : http://www.datasciencetoolkit.org/maps/api/geocode/json?address=Graz&sensor=false

## Information from URL : http://www.datasciencetoolkit.org/maps/api/geocode/json?address=Belgrade&sensor=false

calculate daily hours of sun.

day_lengths <- combined %>% 
  mutate(date = date(date)) %>% 
  spread(type, time) %>% 
  mutate(day_length = sunset - sunrise)

day_lengths

## # A tibble: 730 x 5
##    date       city     sunrise             sunset              day_length 
##    <date>     <chr>    <dttm>              <dttm>              <time>     
##  1 2018-01-01 Belgrade 2018-02-11 07:15:43 2018-02-11 16:07:46 8.8675     
##  2 2018-01-01 Graz     2018-02-11 07:44:17 2018-02-11 16:19:21 8.58444444…
##  3 2018-01-02 Belgrade 2018-02-11 07:15:44 2018-02-11 16:08:41 8.8825     
##  4 2018-01-02 Graz     2018-02-11 07:44:16 2018-02-11 16:20:19 8.60083333…
##  5 2018-01-03 Belgrade 2018-02-11 07:15:44 2018-02-11 16:09:38 8.89833333…
##  6 2018-01-03 Graz     2018-02-11 07:44:12 2018-02-11 16:21:19 8.61861111…
##  7 2018-01-04 Belgrade 2018-02-11 07:15:41 2018-02-11 16:10:37 8.91555555…
##  8 2018-01-04 Graz     2018-02-11 07:44:06 2018-02-11 16:22:21 8.6375     
##  9 2018-01-05 Belgrade 2018-02-11 07:15:35 2018-02-11 16:11:38 8.93416666…
## 10 2018-01-05 Graz     2018-02-11 07:43:57 2018-02-11 16:23:24 8.6575     
## # ... with 720 more rows
…
day_difference <- day_lengths %>% 
  select(date, city, day_length) %>% 
  spread(city, day_length) %>% 
  mutate(difference = Graz - Belgrade)
day_difference

## # A tibble: 365 x 4
##    date       Belgrade         Graz             difference        
##    <date>     <time>           <time>           <time>            
##  1 2018-01-01 8.8675           8.58444444444445 -0.283055555555555
##  2 2018-01-02 8.8825           8.60083333333333 -0.281666666666666
##  3 2018-01-03 8.89833333333333 8.61861111111111 -0.279722222222222
##  4 2018-01-04 8.91555555555555 8.6375           -0.278055555555556
##  5 2018-01-05 8.93416666666667 8.6575           -0.276666666666666
##  6 2018-01-06 8.95388888888889 8.67916666666667 -0.274722222222222
##  7 2018-01-07 8.97472222222222 8.70222222222222 -0.272500000000001
##  8 2018-01-08 8.99638888888889 8.72666666666667 -0.269722222222223
##  9 2018-01-09 9.01972222222222 8.75194444444444 -0.267777777777779
## 10 2018-01-10 9.04388888888889 8.77861111111111 -0.265277777777778
## # ... with 355 more rows
…
